…
Below is a table summarizing the number of items ordered from aisle. In
total, there are 134 aisles, with fresh vegetables and fresh fruits
holding the most items ordered by far.

``` r
instacart %>% 
  count(aisle) %>% 
  arrange(desc(n))
```

    ## # A tibble: 134 × 2
    ##    aisle                              n
    ##    <chr>                          <int>
    ##  1 fresh vegetables              150609
    ##  2 fresh fruits                  150473
    ##  3 packaged vegetables fruits     78493
    ##  4 yogurt                         55240
    ##  5 packaged cheese                41699
    ##  6 water seltzer sparkling water  36617
    ##  7 milk                           32644
    ##  8 chips pretzels                 31269
    ##  9 soy lactosefree                26240
    ## 10 bread                          23635
    ## # … with 124 more rows
…
    ## Rows: 35 Columns: 1443
    ## ── Column specification ────────────────────────────────────────────────────────
    ## Delimiter: ","
    ## chr    (1): day
    ## dbl (1442): week, day_id, activity.1, activity.2, activity.3, activity.4, ac...
    ## 
    ## ℹ Use `spec()` to retrieve the full column specification for this data.
    ## ℹ Specify the column types or set `show_col_types = FALSE` to quiet this message.

``` r
accel
```

    ## # A tibble: 50,400 × 6
    ##     week day_id day    activity_time activity_counts `(...)`
    ##    <dbl>  <dbl> <fct>          <dbl>           <dbl> <chr>  
    ##  1     1      1 Friday             1            88.4 Weekday
    ##  2     1      1 Friday             2            82.2 Weekday
    ##  3     1      1 Friday             3            64.4 Weekday
    ##  4     1      1 Friday             4            70.0 Weekday
    ##  5     1      1 Friday             5            75.0 Weekday
    ##  6     1      1 Friday             6            66.3 Weekday
    ##  7     1      1 Friday             7            53.8 Weekday
    ##  8     1      1 Friday             8            47.8 Weekday
    ##  9     1      1 Friday             9            55.5 Weekday
    ## 10     1      1 Friday            10            43.0 Weekday
    ## # … with 50,390 more rows
…
